…
tmp <- trend_presence_data %>%
  select(-Common, -City, -Salinity, -Temp) %>%
  group_by(Year, Site, Species) %>%
  summarize(observations = sum(Present, na.rm = TRUE),
            .groups = 'keep') %>%
  filter (! is.na(Species)) %>%
  left_join(visits, by = 'Year') %>%
  summarize(site_visits = first (site_visits),
            frequency = observations / site_visits, 
            .groups = 'drop')
tmp
#> # A tibble: 378 x 5
#>     Year Site      Species                site_visits frequency
#>    <int> <chr>     <chr>                        <int>     <dbl>
#>  1  2008 SMCC Dock Ascidiella aspersa               2       0  
#>  2  2008 SMCC Dock Botrylloides violaceus           2       1  
#>  3  2008 SMCC Dock Botryllus schlosseri             2       0.5
#>  4  2008 SMCC Dock Bugula neritina                  2       0  
#>  5  2008 SMCC Dock Caprella mutica                  2       0  
#>  6  2008 SMCC Dock Carcinus maenas                  2       0  
#>  7  2008 SMCC Dock Codium fragile                   2       0  
#>  8  2008 SMCC Dock Colpomenia peregrina             2       0  
#>  9  2008 SMCC Dock Corella eumyota                  2       0  
#> 10  2008 SMCC Dock Diadumene lineata                2       0  
#> # ... with 368 more rows
```
…
``` r
tmp <- trend_abundance_data %>%
  mutate(dummy = 1) %>%
  pivot_wider(names_from = Abundance,
              values_from = dummy, 
              names_repair = "unique") %>%
  rename(Common_Name = Common...11) %>%
  rename(Common  = Common...18) %>%
  relocate(Absent, .before = Rare) %>%
  relocate(Few, Common, Abundant, .after = Rare)
#> New names:
#> * Common -> Common...11
#> * Common -> Common...18
tmp
#> # A tibble: 1,216 x 19
#>    Date                Site      Type  City     Salinity  Temp Month  Year Where
#>    <dttm>              <chr>     <fct> <chr>       <dbl> <dbl> <fct> <int> <fct>
#>  1 2008-07-18 00:00:00 SMCC Dock Dock  South P~       29    18 Jul    2008 Main~
#>  2 2008-07-18 00:00:00 SMCC Dock Dock  South P~       29    18 Jul    2008 Main~
#>  3 2008-07-18 00:00:00 SMCC Dock Dock  South P~       29    18 Jul    2008 Main~
#>  4 2008-07-18 00:00:00 SMCC Dock Dock  South P~       29    18 Jul    2008 Main~
#>  5 2008-07-18 00:00:00 SMCC Dock Dock  South P~       29    18 Jul    2008 Main~
#>  6 2008-07-18 00:00:00 SMCC Dock Dock  South P~       29    18 Jul    2008 Main~
#>  7 2008-07-18 00:00:00 SMCC Dock Dock  South P~       29    18 Jul    2008 Main~
#>  8 2008-07-18 00:00:00 SMCC Dock Dock  South P~       29    18 Jul    2008 Main~
#>  9 2008-07-18 00:00:00 SMCC Dock Dock  South P~       29    18 Jul    2008 Main~
#> 10 2008-07-18 00:00:00 SMCC Dock Dock  South P~       29    18 Jul    2008 Main~
#> # ... with 1,206 more rows, and 10 more variables: Species <chr>,
#> #   Common_Name <chr>, Order <dbl>, Label <chr>, Absent <dbl>, Rare <dbl>,
#> #   Few <dbl>, Common <dbl>, Abundant <dbl>, NA <dbl>
```

``` r
tmp <- tmp %>%
  group_by(Year, Species) %>%
  summarize(samples = n(),
           Absent = sum(Absent, na.rm = TRUE) / samples,
           Rare = sum(Rare, na.rm = TRUE) / samples,
           Few = sum(Few, na.rm = TRUE) / samples, 
           Common = sum(Common, na.rm = TRUE) / samples,
           Abundant = sum(Abundant, na.rm = TRUE) / samples,
           .groups = 'drop'
           ) %>%
  filter(! is.na(Species))
tmp
#> # A tibble: 234 x 8
#>     Year Species                samples Absent  Rare   Few Common Abundant
#>    <int> <chr>                    <int>  <dbl> <dbl> <dbl>  <dbl>    <dbl>
#>  1  2008 Ascidiella aspersa           2    1     0       0      0        0
#>  2  2008 Botrylloides violaceus       2    0     0       1      0        0
#>  3  2008 Botryllus schlosseri         2    0.5   0.5     0      0        0
#>  4  2008 Bugula neritina              2    1     0       0      0        0
#>  5  2008 Caprella mutica              2    1     0       0      0        0
#>  6  2008 Carcinus maenas              2    1     0       0      0        0
#>  7  2008 Codium fragile               2    1     0       0      0        0
#>  8  2008 Colpomenia peregrina         2    1     0       0      0        0
#>  9  2008 Corella eumyota              2    1     0       0      0        0
#> 10  2008 Diadumene lineata            2    1     0       0      0        0
#> # ... with 224 more rows
```

``` r
tmp <- tmp %>%
  pivot_longer(Absent:Abundant, names_to = 'Abundance', values_to = 'Frequency') %>%
  mutate(Abundance = ordered(Abundance,
                             levels = c('Absent', 'Rare', 'Few', 
                                        'Common', 'Abundant')))
tmp
#> # A tibble: 1,170 x 5
#>     Year Species                samples Abundance Frequency
#>    <int> <chr>                    <int> <ord>         <dbl>
#>  1  2008 Ascidiella aspersa           2 Absent            1
#>  2  2008 Ascidiella aspersa           2 Rare              0
#>  3  2008 Ascidiella aspersa           2 Few               0
#>  4  2008 Ascidiella aspersa           2 Common            0
#>  5  2008 Ascidiella aspersa           2 Abundant          0
#>  6  2008 Botrylloides violaceus       2 Absent            0
#>  7  2008 Botrylloides violaceus       2 Rare              0
#>  8  2008 Botrylloides violaceus       2 Few               1
#>  9  2008 Botrylloides violaceus       2 Common            0
#> 10  2008 Botrylloides violaceus       2 Abundant          0
#> # ... with 1,160 more rows
```
…
