…
So, the missing observations from 2016 are all are from the month of
October. This was one site visit in which full data was not collected.

#### Spring Point Marine 2018 Missing Abundance Data

``` r
the_data %>% 
  filter(Site == "Spring Point Marina", Year == 2018) %>%
  select(-Type, -Year, -Site, -City, -Weather, -Salinity, 
         -Temp, -Comments)
#> # A tibble: 43 x 5
#>    Date                Species                Abundance Month Where   
#>    <dttm>              <chr>                  <ord>     <fct> <chr>   
#>  1 2018-06-26 00:00:00 Ascidiella aspersa     Rare      Jun   Mainland
#>  2 2018-06-26 00:00:00 Styela clava           Rare      Jun   Mainland
#>  3 2018-06-26 00:00:00 Botrylloides violaceus Few       Jun   Mainland
#>  4 2018-06-26 00:00:00 Botryllus schlosseri   Few       Jun   Mainland
#>  5 2018-06-26 00:00:00 Carcinus maenas        Rare      Jun   Mainland
#>  6 2018-06-26 00:00:00 Tricellaria inopinata  Rare      Jun   Mainland
#>  7 2018-06-26 00:00:00 Caprella mutica        Few       Jun   Mainland
#>  8 2018-06-26 00:00:00 Membranipora sp.       Few       Jun   Mainland
#>  9 2018-07-18 00:00:00 Ascidiella aspersa     <NA>      Jul   Mainland
#> 10 2018-07-18 00:00:00 Styela clava           <NA>      Jul   Mainland
#> # ... with 33 more rows
```
…
